{
    "KPlugin": {
        "Category": "Window Management",
        "Description": "Editor for the tiling areas",
        "Description[ar]": "محرر لترتيب المساحات",
        "Description[be]": "Рэдактар абласцей кампанавання",
        "Description[bg]": "Редактиране на зоните на плочковидно разпределяне",
        "Description[ca@valencia]": "Editor per a les àrees de mosaic",
        "Description[ca]": "Editor per a les àrees de mosaic",
        "Description[cs]": "Editor pro oblasti dlaždicování",
        "Description[en_GB]": "Editor for the tiling areas",
        "Description[es]": "Editor para las áreas de mosaico",
        "Description[eu]": "Eremu lauzatuen editorea",
        "Description[fr]": "Éditeur pour les zones de recouvrement",
        "Description[ia]": "Editor per le areas de tiling (tegular)",
        "Description[it]": "Editor per le aree di affiancamento",
        "Description[nl]": "Bewerker voor de gebieden waar tegels worden geplaatst",
        "Description[pl]": "Edytor dla obszarów kafelkowanych",
        "Description[pt]": "Editor das áreas com padrões",
        "Description[ru]": "Редактирование областей окон приложений в мозаичном режиме рабочего стола",
        "Description[sl]": "Urejevalnik za področja s sličicami",
        "Description[tr]": "Döşeme alanları için düzenleyici",
        "Description[uk]": "Редактор для мозаїчних областей",
        "Description[vi]": "Trình biên tập các vùng lát",
        "Description[x-test]": "xxEditor for the tiling areasxx",
        "Description[zh_CN]": "瓷贴区域的编辑器",
        "Description[zh_TW]": "平鋪方塊區域的編輯器",
        "EnabledByDefault": true,
        "Id": "tileseditor",
        "License": "GPL",
        "Name": "Tiling Editor",
        "Name[ar]": "محرر الترتيب",
        "Name[be]": "Рэдактар кампанавання",
        "Name[bg]": "Редактор на разпределяне",
        "Name[ca@valencia]": "Editor de mosaic",
        "Name[ca]": "Editor de mosaic",
        "Name[cs]": "Editor dlaždic",
        "Name[en_GB]": "Tiling Editor",
        "Name[es]": "Editor de mosaico",
        "Name[eu]": "Lauzadura editorea",
        "Name[fr]": "Éditeur pour la gestion des recouvrements",
        "Name[ia]": "Editor de tiling (tegular)",
        "Name[it]": "Editor di affiancamento",
        "Name[ka]": "მოზაიკის რედაქტორი",
        "Name[nl]": "Bewerker voor tegels plaatsen",
        "Name[pl]": "Edytor kafelków",
        "Name[pt]": "Editor de Padrões",
        "Name[ru]": "Редактор областей мозаичного режима",
        "Name[sl]": "Urejevalnik sličic",
        "Name[tr]": "Döşeme Düzenleyici",
        "Name[uk]": "Редактор мозаїк",
        "Name[vi]": "Trình biên tập lát",
        "Name[x-test]": "xxTiling Editorxx",
        "Name[zh_CN]": "瓷贴编辑器",
        "Name[zh_TW]": "平鋪方塊編輯器"
    },
    "X-KDE-ConfigModule": "kwin_tileseditor_config"
}
