{
    "KPackageStructure": "KWin/Effect",
    "KPlugin": {
        "Authors": [
            {
                "Email": "vlad.zahorodnii@kde.org",
                "Name": "Vlad Zahorodnii",
                "Name[ar]": "فلاد زاهورودني",
                "Name[az]": "Vlad Zahorodnii",
                "Name[be]": "Vlad Zahorodnii",
                "Name[bg]": "Vlad Zahorodnii",
                "Name[ca@valencia]": "Vlad Zahorodnii",
                "Name[ca]": "Vlad Zahorodnii",
                "Name[cs]": "Vlad Zahorodnii",
                "Name[de]": "Vlad Zahorodnii",
                "Name[en_GB]": "Vlad Zahorodnii",
                "Name[es]": "Vlad Zahorodnii",
                "Name[et]": "Vlad Zahorodnii",
                "Name[eu]": "Vlad Zahorodnii",
                "Name[fi]": "Vlad Zahorodnii",
                "Name[fr]": "Vlad Zahorodnii",
                "Name[hu]": "Vlad Zahorodnii",
                "Name[ia]": "Vlad Zahorodnii",
                "Name[id]": "Vlad Zahorodnii",
                "Name[it]": "Vlad Zahorodnii",
                "Name[ja]": "Vlad Zahorodnii",
                "Name[ka]": "Vlad Zahorodnii",
                "Name[ko]": "Vlad Zahorodnii",
                "Name[lt]": "Vlad Zahorodnii",
                "Name[nl]": "Vlad Zahorodnii",
                "Name[nn]": "Vlad Zahorodnii",
                "Name[pl]": "Vlad Zahorodnii",
                "Name[pt]": "Vlad Zahorodnii",
                "Name[pt_BR]": "Vlad Zahorodnii",
                "Name[ro]": "Vlad Zahorodnii",
                "Name[ru]": "Влад Загородний",
                "Name[sk]": "Vlad Zahorodnii",
                "Name[sl]": "Vlad Zahorodnii",
                "Name[sv]": "Vlad Zahorodnii",
                "Name[ta]": "விலாட் ஜாஹொரிடுனி",
                "Name[tr]": "Vlad Zahorodnii",
                "Name[uk]": "Влад Загородній",
                "Name[vi]": "Vlad Zahorodnii",
                "Name[x-test]": "xxVlad Zahorodniixx",
                "Name[zh_CN]": "Vlad Zahorodnii",
                "Name[zh_TW]": "Vlad Zahorodnii"
            }
        ],
        "Category": "Window Open/Close Animation",
        "Description": "Make windows smoothly scale in and out when they are shown or hidden",
        "Description[ar]": "اجعل النوافذ تكبر وتصغر بنعومة عند إظهاراها وإخفائها",
        "Description[be]": "Плаўнае павелічэнне або памяншэнне акон пры з'яўленні або знікненні",
        "Description[bg]": "Плавно увеличаване и намаляване на мащаба на прозорците при показване или скриване",
        "Description[ca@valencia]": "Fa que les finestres entren o isquen volant quan es mostren o s'oculten",
        "Description[ca]": "Fa que les finestres entrin o surtin volant quan es mostren o s'oculten",
        "Description[cs]": "Nechá okna plynule zvětšit/zmenšit se, pokud jsou zobrazeny resp. skryty",
        "Description[en_GB]": "Make windows smoothly scale in and out when they are shown or hidden",
        "Description[es]": "Hacer que las ventanas se escalen suavemente al mostrarlas y al ocultarlas",
        "Description[et]": "Skaleerib aknaid sujuvalt, kui need peidetakse või nähtavale tuuakse",
        "Description[eu]": "Leihoak emeki barrura eta kanpora eskalatu haiek erakutsi edo ezkutatzean",
        "Description[fr]": "Faire un re-dimensionnement en avant ou en arrière des fenêtres lorsqu’elles sont affichées ou masquées",
        "Description[ia]": "Face que fenestras pote dulcemente scalar intra e foras quando illos es monstrate o celate",
        "Description[it]": "Ridimensiona le finestre dolcemente quando sono mostrate o nascoste",
        "Description[nl]": "Laat vensters vloeiend kleiner en groter schalen als ze worden getoond of verborgen",
        "Description[pl]": "Okna gładko pomniejszają się przy otwieraniu i powiększają przy zamykaniu",
        "Description[pt]": "Faz com que as janelas mudem suavemente de tamanho quando aparecem ou desaparecem",
        "Description[ru]": "Плавное увеличение или уменьшение окон при их появлении и скрытии",
        "Description[sl]": "Okna naj gladko spreminjajo velikost (navzven in navznoter), ko se prikažejo ali skrijejo",
        "Description[ta]": "சாளரங்களை காட்டும்போதும் மறைக்கும்போதும் அவற்றின் அளவை படிப்படியாக மாற்றுவதுபோல் அசைவூட்டும்",
        "Description[tr]": "Pencereler gösterilirken veya gizlenirken pürüzsüzce ölçeklendirilmelerini sağlar",
        "Description[uk]": "Плавне масштабування вікон при появі або приховуванні",
        "Description[vi]": "Làm cửa sổ đổi cỡ một cách êm dịu khi chúng hiện ra và biến mất",
        "Description[x-test]": "xxMake windows smoothly scale in and out when they are shown or hiddenxx",
        "Description[zh_CN]": "窗口显示/隐藏时呈现平滑缩放过渡动效",
        "Description[zh_TW]": "讓視窗在顯示或隱藏的時候平滑地以比例縮放方式出現或消失",
        "EnabledByDefault": true,
        "Icon": "preferences-system-windows-effect-scale",
        "Id": "kwin4_effect_scale",
        "License": "GPL",
        "Name": "Scale",
        "Name[ar]": "حجّم",
        "Name[be]": "Маштабаванне",
        "Name[bg]": "Мащабиране",
        "Name[ca@valencia]": "Escala",
        "Name[ca]": "Escala",
        "Name[cs]": "Měřítko",
        "Name[en_GB]": "Scale",
        "Name[es]": "Escalar",
        "Name[et]": "Skaleerimine",
        "Name[eu]": "Eskalatu",
        "Name[fr]": "Échelle",
        "Name[ia]": "Scala",
        "Name[it]": "Scala",
        "Name[ka]": "მასშტაბირება",
        "Name[nl]": "Schaal",
        "Name[pl]": "Skalowanie",
        "Name[pt]": "Escala",
        "Name[ru]": "Масштабирование",
        "Name[sl]": "Spremeni velikost",
        "Name[ta]": "அளவுமாற்று",
        "Name[tr]": "Ölçeklendir",
        "Name[uk]": "Масштабування",
        "Name[vi]": "Đổi cỡ",
        "Name[x-test]": "xxScalexx",
        "Name[zh_CN]": "按比例缩放",
        "Name[zh_TW]": "縮放",
        "Version": "1"
    },
    "X-KDE-Ordering": "60",
    "X-KDE-PluginKeyword": "kwin4_effect_scale",
    "X-KWin-Config-TranslationDomain": "kwin_effects",
    "X-KWin-Exclusive-Category": "toplevel-open-close-animation",
    "X-Plasma-API": "javascript",
    "X-Plasma-MainScript": "code/main.js"
}
